year	author	number	unknown	n_articles
1979	4	4	0	8
1980	20	0	0	20
1981	19	0	0	19
1982	22	0	0	22
1983	23	0	0	23
1984	33	0	0	33
1985	27	0	0	27
1986	35	43	0	78
1987	39	46	0	85
1988	51	27	0	78
1989	39	59	0	98
1990	55	59	0	114
1991	40	52	0	92
1992	55	46	0	101
1993	45	55	0	100
1994	46	34	0	80
1995	57	84	0	141
1996	54	144	0	198
1997	598	754	0	1352
1998	637	727	0	1364
1999	312	570	6	888
2000	48	730	1	779
2001	277	1581	2	1860
2002	588	2596	4	3188
2003	720	3472	2	4194
2004	1125	5649	1	6775
2005	1294	10164	1	11459
2006	1793	14247	56	16096
2007	3164	20115	581	23860
2008	4909	30396	3378	38683
2009	5349	44375	4255	53979
2010	8053	61576	4265	73894
2011	11138	85877	4558	101573
2012	14907	115857	4090	134854
2013	19931	148775	2189	170895
2014	25973	177257	1554	204784
2015	29059	195775	1603	226437
2016	32507	210789	826	244122
2017	30675	224249	812	255736
2018	2390	21838	75	24303
